<?xml version="1.0" encoding="UTF-8"?>
<svg width="46px" height="47px" viewBox="0 0 46 47" version="1.1" xmlns="http://www.w3.org/2000/svg" xmlns:xlink="http://www.w3.org/1999/xlink">
    <!-- Generator: Sketch 63.1 (92452) - https://sketch.com -->
    <title>find</title>
    <desc>Created with Sketch.</desc>
    <g id="Page-1" stroke="none" stroke-width="1" fill="none" fill-rule="evenodd">
        <g id="Layout-Copy" transform="translate(-344.000000, -2161.000000)" fill-rule="nonzero">
            <g id="find" transform="translate(344.000000, 2161.000000)">
                <polygon id="Path" fill="#E4EDFB" points="37.4399968 46.079996 0 46.079996 0 9.41765544 10.9870303 0 37.4399968 0"></polygon>
                <path d="M42.6037463,44.6399962 L27.7818726,29.8181224 L29.8181224,27.7818726 L44.6399962,42.6037463 C45.2021446,43.1662463 45.2021446,44.0778477 44.6399962,44.6399962 C44.0778477,45.2021446 43.1662463,45.2021446 42.6037463,44.6399962 Z" id="Path" fill="#E76E54"></path>
                <polygon id="Path" fill="#48C8EF" points="0 9.41765544 10.9870303 9.41765544 10.9870303 0"></polygon>
                <g id="Group" transform="translate(5.760000, 37.439997)" fill="#FFFFFF">
                    <polygon id="Path" points="0 0 2.87999975 0 2.87999975 2.87999975 0 2.87999975"></polygon>
                    <polygon id="Path" points="5.7599995 0 8.63999926 0 8.63999926 2.87999975 5.7599995 2.87999975"></polygon>
                    <polygon id="Path" points="11.519999 0 14.3999988 0 14.3999988 2.87999975 11.519999 2.87999975"></polygon>
                </g>
                <path d="M33.1199971,22.3199981 C33.1199971,28.284607 28.284607,33.1199971 22.3199981,33.1199971 C16.3553892,33.1199971 11.519999,28.284607 11.519999,22.3199981 C11.519999,16.3553892 16.3553892,11.519999 22.3199981,11.519999 C28.284607,11.519999 33.1199971,16.3553892 33.1199971,22.3199981 Z" id="Path" fill="#E76E54"></path>
                <path d="M30.2399974,22.3199981 C30.2399974,26.6941383 26.6941383,30.2399974 22.3199981,30.2399974 C17.9458579,30.2399974 14.3999988,26.6941383 14.3999988,22.3199981 C14.3999988,17.9458579 17.9458579,14.3999988 22.3199981,14.3999988 C26.6941383,14.3999988 30.2399974,17.9458579 30.2399974,22.3199981 Z" id="Path" fill="#48C8EF"></path>
            </g>
        </g>
    </g>
</svg>